{
  "productsCategories": {},
  "servicesCategories": {},
  "featuredServices": {},
  "newlyAddedServices": {},
  "services": {},
  "featuredProducts": [
    {
      "id": 1,
      "name": "iphone",
      "image": "https://images.unsplash.com/photo-1510878933023-e2e2e3942fb0?ixid=MnwxMjA3fDB8MHxzZWFyY2h8MTd8fGlwaG9uZXxlbnwwfHwwfHw%3D&ixlib=rb-1.2.1&auto=format&fit=crop&w=500&q=60",
      "price": 1100
    },
    {
      "id": 2,
      "name": "mac",
      "image": "https://images.unsplash.com/photo-1517059224940-d4af9eec41b7?ixlib=rb-1.2.1&ixid=MnwxMjA3fDB8MHxwaG90by1wYWdlfHx8fGVufDB8fHx8&auto=format&fit=crop&w=1005&q=80",
      "price": 1500
    },
    {
      "id": 3,
      "name": "macbook",
      "image": "https://images.unsplash.com/photo-1502945015378-0e284ca1a5be?ixid=MnwxMjA3fDB8MHxwaG90by1wYWdlfHx8fGVufDB8fHx8&ixlib=rb-1.2.1&auto=format&fit=crop&w=870&q=80",
      "price": 1000
    },
    {
      "id": 4,
      "name": "surface",
      "image": "https://images.unsplash.com/photo-1617780421749-ebd0ef657b2e?ixid=MnwxMjA3fDB8MHxwaG90by1wYWdlfHx8fGVufDB8fHx8&ixlib=rb-1.2.1&auto=format&fit=crop&w=870&q=80",
      "price": 1300
    }
  ],
  "trendingProducts": [
    {
      "id": 1,
      "name": "iphone",
      "image": "https://images.unsplash.com/photo-1510878933023-e2e2e3942fb0?ixid=MnwxMjA3fDB8MHxzZWFyY2h8MTd8fGlwaG9uZXxlbnwwfHwwfHw%3D&ixlib=rb-1.2.1&auto=format&fit=crop&w=500&q=60",
      "price": 124
    },
    {
      "id": 2,
      "name": "mac",
      "image": "https://images.unsplash.com/photo-1517059224940-d4af9eec41b7?ixlib=rb-1.2.1&ixid=MnwxMjA3fDB8MHxwaG90by1wYWdlfHx8fGVufDB8fHx8&auto=format&fit=crop&w=1005&q=80",
      "price": 124
    },
    {
      "id": 3,
      "name": "macbook",
      "image": "https://images.unsplash.com/photo-1502945015378-0e284ca1a5be?ixid=MnwxMjA3fDB8MHxwaG90by1wYWdlfHx8fGVufDB8fHx8&ixlib=rb-1.2.1&auto=format&fit=crop&w=870&q=80",
      "price": 124
    },
    {
      "id": 4,
      "name": "macbook",
      "image": "https://images.unsplash.com/photo-1502945015378-0e284ca1a5be?ixid=MnwxMjA3fDB8MHxwaG90by1wYWdlfHx8fGVufDB8fHx8&ixlib=rb-1.2.1&auto=format&fit=crop&w=870&q=80",
      "price": 124
    },
    {
      "id": 5,
      "name": "surface",
      "image": "https://images.unsplash.com/photo-1617780421749-ebd0ef657b2e?ixid=MnwxMjA3fDB8MHxwaG90by1wYWdlfHx8fGVufDB8fHx8&ixlib=rb-1.2.1&auto=format&fit=crop&w=870&q=80",
      "price": 124
    }
  ],
  "products": [
    {
      "id": 1,
      "name": "iphone",
      "image": "https://images.unsplash.com/photo-1510878933023-e2e2e3942fb0?ixid=MnwxMjA3fDB8MHxzZWFyY2h8MTd8fGlwaG9uZXxlbnwwfHwwfHw%3D&ixlib=rb-1.2.1&auto=format&fit=crop&w=500&q=60",
      "price": 1100
    },
    {
      "id": 2,
      "name": "mac",
      "image": "https://images.unsplash.com/photo-1517059224940-d4af9eec41b7?ixlib=rb-1.2.1&ixid=MnwxMjA3fDB8MHxwaG90by1wYWdlfHx8fGVufDB8fHx8&auto=format&fit=crop&w=1005&q=80",
      "price": 1500
    },
    {
      "id": 3,
      "name": "macbook",
      "image": "https://images.unsplash.com/photo-1502945015378-0e284ca1a5be?ixid=MnwxMjA3fDB8MHxwaG90by1wYWdlfHx8fGVufDB8fHx8&ixlib=rb-1.2.1&auto=format&fit=crop&w=870&q=80",
      "price": 1000
    },
    {
      "id": 4,
      "name": "surface",
      "image": "https://images.unsplash.com/photo-1617780421749-ebd0ef657b2e?ixid=MnwxMjA3fDB8MHxwaG90by1wYWdlfHx8fGVufDB8fHx8&ixlib=rb-1.2.1&auto=format&fit=crop&w=870&q=80",
      "price": 1300
    }
  ],
  "footer": {
    "socialMediaLinks": {
      "facebook": "https://www.facebook.com/",
      "instagram": "https://www.instagram.com"
    },
    "company": {
      "about": "We connect green businesses with green individuals looking to make an impact on their world."
    },
    "contact": {
      "email": "",
      "phone": ""
    },
    "apps": {}
  },
  "slider" : [
    {
      "id" : 1 , 
      "img" : "https://media.idownloadblog.com/wp-content/uploads/2018/10/Mac-Mini-concept-Front-Viktor-Kadar-001-768x480.jpg",
      "link" :  "" , 
      "name" : "mac mini"
    },{
      "id" : 2 , 
      "img" : "https://media.idownloadblog.com/wp-content/uploads/2021/10/MacBook-Pro-2021-hero-1536x628.png",
      "link" :  "",
      "name" : "mac book"
    }
  ]
}
